{
  "content": [
    {
      "id": "s479",
      "title": "Biohackers",
      "type": "TV Show",
      "directors": [],
      "cast": [
        "Luna Wedler",
        "Jessica Schwarz",
        "Adrian Julius Tillmann",
        "Thomas Prenn",
        "Jing Xiang",
        "Caro Cult",
        "Sebastian Jakob Doppelbauer"
      ],
      "country": [
        "Germany"
      ],
      "dateAdded": "July 09, 2021",
      "releaseYear": 2021,
      "rating": "TV-MA",
      "duration": "2 Seasons",
      "categories": [
        "International TV Shows",
        "TV Dramas",
        "TV Sci-Fi & Fantasy"
      ],
      "description": "A medical student enters a top German university on a secret mission to uncover a conspiracy linking a family tragedy to a visionary biology professor."
    },
    {
      "id": "s436",
      "title": "Touch Your Heart",
      "type": "TV Show",
      "directors": [],
      "cast": [
        "Lee Dong-wook",
        "Yoo In-na",
        "Lee Sang-woo",
        "Son Sung-yoon",
        "Oh Jung-se",
        "Shim Hyoung-tak",
        "Jang So-yeon",
        "Park Ji-hwan",
        "Lee Jun-hyuk"
      ],
      "country": [],
      "dateAdded": "July 20, 2021",
      "releaseYear": 2019,
      "rating": "TV-MA",
      "duration": "1 Season",
      "categories": [
        "Crime TV Shows",
        "International TV Shows",
        "Romantic TV Shows"
      ],
      "description": "Hoping to make a comeback after a bad scandal, an actress agrees to research a new role by taking a job as a secretary for a prickly attorney."
    },
    {
      "id": "s5362",
      "title": "The Blind Christ",
      "type": "Movie",
      "directors": [
        "Christopher Murray"
      ],
      "cast": [
        "Michael Silva",
        "Bastián Inostroza",
        "Ana María Henríquez",
        "Mauricio Pinto",
        "Pedro Godoy",
        "Hermelinda Cayo",
        "Héctor Mella",
        "Gonzalo Villalobos",
        "Noelia Rubio"
      ],
      "country": [
        "Chile",
        "France"
      ],
      "dateAdded": "August 01, 2017",
      "releaseYear": 2016,
      "rating": "TV-MA",
      "duration": "86 min",
      "categories": [
        "Dramas",
        "Independent Movies",
        "International Movies"
      ],
      "description": "A man claiming he had a divine revelation as a child treks across the Chilean desert to perform a miracle on a friend badly injured in a remote town."
    },
    {
      "id": "s245",
      "title": "Gunshot",
      "type": "Movie",
      "directors": [
        "Karim El Shenawy"
      ],
      "cast": [
        "Ahmed El Fishawy",
        "Ruby",
        "Mohamed Mamdouh",
        "Ahmed Malek",
        "Asmaa Abulyazeid",
        "Samy Maghawry",
        "Safaa El-Toukhy",
        "Ahmed Kamal",
        "Arfa Abdel Rassoul",
        "Hana Shiha"
      ],
      "country": [],
      "dateAdded": "August 20, 2021",
      "releaseYear": 2018,
      "rating": "TV-14",
      "duration": "96 min",
      "categories": [
        "Dramas",
        "International Movies",
        "Thrillers"
      ],
      "description": "After a clash at a protest ends in bloodshed, a forensic doctor and a journalist embark on a search for the elusive truth."
    },
    {
      "id": "s8140",
      "title": "Sweet Virginia",
      "type": "Movie",
      "directors": [
        "Jamie M. Dagg"
      ],
      "cast": [
        "Jon Bernthal",
        "Christopher Abbott",
        "Imogen Poots",
        "Rosemarie DeWitt",
        "Odessa Young",
        "Joseph Lyle Taylor",
        "Jonathan Tucker",
        "Garry Chalk",
        "Jared Abrahamson",
        "Gabrielle Rose"
      ],
      "country": [
        "United States",
        "Canada"
      ],
      "dateAdded": "December 01, 2019",
      "releaseYear": 2017,
      "rating": "R",
      "duration": "93 min",
      "categories": [
        "Dramas",
        "Independent Movies",
        "Thrillers"
      ],
      "description": "In a remote Alaskan town reeling from a sudden triple murder, a former rodeo champ befriends a lone newcomer with a violent occupation."
    },
    {
      "id": "s3776",
      "title": "Cosmos Laundromat: First Cycle",
      "type": "Movie",
      "directors": [
        "Mathieu Auvray"
      ],
      "cast": [
        "Pierre Bokma",
        "Reinout Scholten van Aschat"
      ],
      "country": [
        "Netherlands"
      ],
      "dateAdded": "June 04, 2019",
      "releaseYear": 2015,
      "rating": "TV-MA",
      "duration": "12 min",
      "categories": [
        "Dramas",
        "International Movies",
        "Sci-Fi & Fantasy"
      ],
      "description": "Despondent on a desolate island, a suicidal sheep is thrown a lifeline by a quirky salesman, who offers him the gift of a lifetime."
    },
    {
      "id": "s4507",
      "title": "Meghnadbodh Rohoshyo",
      "type": "Movie",
      "directors": [
        "Anik Datta"
      ],
      "cast": [
        "Barun Chanda",
        "Sabyasachi Chakraborty"
      ],
      "country": [
        "India"
      ],
      "dateAdded": "October 15, 2018",
      "releaseYear": 2017,
      "rating": "TV-MA",
      "duration": "150 min",
      "categories": [
        "Dramas",
        "International Movies"
      ],
      "description": "A professor mysteriously vanishes, leaving behind a host of suspects, a shadowy history and a clue: the anonymous birthday gift of a Bengali classic."
    },
    {
      "id": "s6909",
      "title": "Hadi İnşallah",
      "type": "Movie",
      "directors": [
        "Ali Taner Baltacı"
      ],
      "cast": [
        "Büşra Pekin",
        "Murat Boz",
        "Cezmi Baskın",
        "Şinasi Yurtsever",
        "İdil Dizdar",
        "Hülya Gülsen Irmak",
        "Canan Özer",
        "Şenay Bozoklar",
        "Emrah Kaman",
        "Müjde Uzman"
      ],
      "country": [
        "Turkey"
      ],
      "dateAdded": "April 04, 2018",
      "releaseYear": 2014,
      "rating": "TV-14",
      "duration": "95 min",
      "categories": [
        "Comedies",
        "International Movies",
        "Romantic Movies"
      ],
      "description": "A young woman recovering poorly from a bad romance gets a new lease on life after encountering a handsome man during a job interview."
    },
    {
      "id": "s7202",
      "title": "Kill Ratio",
      "type": "Movie",
      "directors": [
        "Paul Tanter"
      ],
      "cast": [
        "Tom Hopper",
        "Amy Huberman",
        "Lacy Moore",
        "Brian McGuinness",
        "Luke Pierucci",
        "Nick Dunning"
      ],
      "country": [
        "United States"
      ],
      "dateAdded": "February 17, 2017",
      "releaseYear": 2016,
      "rating": "TV-MA",
      "duration": "87 min",
      "categories": [
        "Action & Adventure"
      ],
      "description": "Posing as a telecom salesman at a business conference, a CIA agent fights to protect a fledgling Eastern European democracy from a military coup."
    },
    {
      "id": "s1626",
      "title": "The Guest",
      "type": "TV Show",
      "directors": [],
      "cast": [
        "Kim Dong-wook",
        "Kim Jae-uk",
        "Jung Eun-chae",
        "Ahn Nae-sang",
        "Lee Won-jong",
        "Park Ho-san"
      ],
      "country": [
        "South Korea"
      ],
      "dateAdded": "December 01, 2020",
      "releaseYear": 2018,
      "rating": "TV-14",
      "duration": "1 Season",
      "categories": [
        "International TV Shows",
        "TV Horror",
        "TV Mysteries"
      ],
      "description": "Bound together by a tragic past, a psychic, a priest and a detective join forces to take down a powerful spirit that's driven by bloodthirst."
    }
  ],
  "page": 0,
  "size": 10,
  "totalItems": 6348,
  "totalPages": 212
}